%YAML 1.1
%TAG !u! tag:unity3d.com,2011:
--- !u!74 &7400000
AnimationClip:
  m_ObjectHideFlags: 0
  m_PrefabParentObject: {fileID: 0}
  m_PrefabInternal: {fileID: 0}
  m_Name: Lapin_Walk
  serializedVersion: 6
  m_Legacy: 0
  m_Compressed: 0
  m_UseHighQualityCurve: 1
  m_RotationCurves: []
  m_CompressedRotationCurves: []
  m_EulerCurves: []
  m_PositionCurves: []
  m_ScaleCurves: []
  m_FloatCurves: []
  m_PPtrCurves:
  - curve:
    - time: 0
      value: {fileID: 21300000, guid: 96e3f946de7582c41b0d7e48f043cc45, type: 3}
    - time: 0.041666668
      value: {fileID: 21300000, guid: 6d627770d5114c94d8cfcc4704fddc3a, type: 3}
    - time: 0.083333336
      value: {fileID: 21300000, guid: bee7eb332e810944391695f8a9595209, type: 3}
    - time: 0.125
      value: {fileID: 21300000, guid: 12378b685d2f3304481608c1f7558874, type: 3}
    - time: 0.16666667
      value: {fileID: 21300000, guid: bd82c8ee923f7ce46ad4a3c0af5cc6e6, type: 3}
    - time: 0.20833334
      value: {fileID: 21300000, guid: 1e184ec05b7fe364dabd0fb6b7734d50, type: 3}
    - time: 0.25
      value: {fileID: 21300000, guid: cbb3241e6d4da8243a4a0314130ef297, type: 3}
    - time: 0.29166666
      value: {fileID: 21300000, guid: 7d0de11cd000aba408d8eb8bfbb7a2a5, type: 3}
    - time: 0.3333333
      value: {fileID: 21300000, guid: fa3d6c41053a49a46b5761c95a347559, type: 3}
    - time: 0.37499997
      value: {fileID: 21300000, guid: 25c738bc381d8d74ea8563c679e6cca8, type: 3}
    - time: 0.41666663
      value: {fileID: 21300000, guid: c734e37df9d717b4499b5dba7da29563, type: 3}
    - time: 0.45833328
      value: {fileID: 21300000, guid: 860fad58affb66e44b74637f571dc38f, type: 3}
    - time: 0.49999994
      value: {fileID: 21300000, guid: 32e04253003497e488ac364bdacb22fc, type: 3}
    - time: 0.5416666
      value: {fileID: 21300000, guid: 8d4914677a3f80c4bbc41cf2a7b9e4d2, type: 3}
    - time: 0.5833333
      value: {fileID: 21300000, guid: 565ffa05c0726b442883a238985ed33b, type: 3}
    - time: 0.625
      value: {fileID: 21300000, guid: 33c8e18bda66ef14794fdca3b7784a95, type: 3}
    attribute: m_Sprite
    path: 
    classID: 212
    script: {fileID: 0}
  m_SampleRate: 24
  m_WrapMode: 0
  m_Bounds:
    m_Center: {x: 0, y: 0, z: 0}
    m_Extent: {x: 0, y: 0, z: 0}
  m_ClipBindingConstant:
    genericBindings:
    - path: 0
      attribute: 0
      script: {fileID: 0}
      classID: 212
      customType: 23
      isPPtrCurve: 1
    pptrCurveMapping:
    - {fileID: 21300000, guid: 96e3f946de7582c41b0d7e48f043cc45, type: 3}
    - {fileID: 21300000, guid: 6d627770d5114c94d8cfcc4704fddc3a, type: 3}
    - {fileID: 21300000, guid: bee7eb332e810944391695f8a9595209, type: 3}
    - {fileID: 21300000, guid: 12378b685d2f3304481608c1f7558874, type: 3}
    - {fileID: 21300000, guid: bd82c8ee923f7ce46ad4a3c0af5cc6e6, type: 3}
    - {fileID: 21300000, guid: 1e184ec05b7fe364dabd0fb6b7734d50, type: 3}
    - {fileID: 21300000, guid: cbb3241e6d4da8243a4a0314130ef297, type: 3}
    - {fileID: 21300000, guid: 7d0de11cd000aba408d8eb8bfbb7a2a5, type: 3}
    - {fileID: 21300000, guid: fa3d6c41053a49a46b5761c95a347559, type: 3}
    - {fileID: 21300000, guid: 25c738bc381d8d74ea8563c679e6cca8, type: 3}
    - {fileID: 21300000, guid: c734e37df9d717b4499b5dba7da29563, type: 3}
    - {fileID: 21300000, guid: 860fad58affb66e44b74637f571dc38f, type: 3}
    - {fileID: 21300000, guid: 32e04253003497e488ac364bdacb22fc, type: 3}
    - {fileID: 21300000, guid: 8d4914677a3f80c4bbc41cf2a7b9e4d2, type: 3}
    - {fileID: 21300000, guid: 565ffa05c0726b442883a238985ed33b, type: 3}
    - {fileID: 21300000, guid: 33c8e18bda66ef14794fdca3b7784a95, type: 3}
  m_AnimationClipSettings:
    serializedVersion: 2
    m_AdditiveReferencePoseClip: {fileID: 0}
    m_AdditiveReferencePoseTime: 0
    m_StartTime: 0
    m_StopTime: 0.6666667
    m_OrientationOffsetY: 0
    m_Level: 0
    m_CycleOffset: 0
    m_HasAdditiveReferencePose: 0
    m_LoopTime: 1
    m_LoopBlend: 0
    m_LoopBlendOrientation: 0
    m_LoopBlendPositionY: 0
    m_LoopBlendPositionXZ: 0
    m_KeepOriginalOrientation: 0
    m_KeepOriginalPositionY: 1
    m_KeepOriginalPositionXZ: 0
    m_HeightFromFeet: 0
    m_Mirror: 0
  m_EditorCurves: []
  m_EulerEditorCurves: []
  m_HasGenericRootTransform: 0
  m_HasMotionFloatCurves: 0
  m_GenerateMotionCurves: 0
  m_Events: []
