%YAML 1.1
%TAG !u! tag:unity3d.com,2011:
--- !u!74 &7400000
AnimationClip:
  m_ObjectHideFlags: 0
  m_PrefabParentObject: {fileID: 0}
  m_PrefabInternal: {fileID: 0}
  m_Name: Tama_Eat
  serializedVersion: 6
  m_Legacy: 0
  m_Compressed: 0
  m_UseHighQualityCurve: 1
  m_RotationCurves: []
  m_CompressedRotationCurves: []
  m_EulerCurves: []
  m_PositionCurves: []
  m_ScaleCurves: []
  m_FloatCurves: []
  m_PPtrCurves:
  - curve:
    - time: 0
      value: {fileID: 21300000, guid: b87811e0b66fedf469de30d8eefdd5bd, type: 3}
    - time: 0.041666668
      value: {fileID: 21300000, guid: cc5377dd6c9b3ba4da3276f91c7fade8, type: 3}
    - time: 0.083333336
      value: {fileID: 21300000, guid: 773d79477bf38dd44b8fe2db5911faac, type: 3}
    - time: 0.125
      value: {fileID: 21300000, guid: f42908664e8cc8742aa0202924086bf9, type: 3}
    - time: 0.16666667
      value: {fileID: 21300000, guid: adf8278f795e25942a8b83301cc3464f, type: 3}
    - time: 0.20833333
      value: {fileID: 21300000, guid: 29a78eb674a9eb944921ce39920e225f, type: 3}
    - time: 0.25
      value: {fileID: 21300000, guid: 43adb70c423935042ad2f703b2a2728a, type: 3}
    - time: 0.29166666
      value: {fileID: 21300000, guid: 96bacc349e82a3149ac5ef307e01270f, type: 3}
    - time: 0.33333334
      value: {fileID: 21300000, guid: 22ba01ee15d903447a36ee4ca02d4627, type: 3}
    - time: 0.375
      value: {fileID: 21300000, guid: de395bb4a1afe9c4190ba2792d022480, type: 3}
    - time: 0.41666666
      value: {fileID: 21300000, guid: 2e7dd8c121977fa4d96cc15213c9a8b3, type: 3}
    - time: 0.45833334
      value: {fileID: 21300000, guid: 606f8374a9742a04abc8064d2b3b801f, type: 3}
    - time: 0.5
      value: {fileID: 21300000, guid: 42b12bbbe37cb3342a2fea126855b844, type: 3}
    - time: 0.5416667
      value: {fileID: 21300000, guid: 572a9fd14fad08d41877fb9ba30d0580, type: 3}
    - time: 0.5833333
      value: {fileID: 21300000, guid: 3a2f5c6cac2e1774a81fe2d641d8c6ca, type: 3}
    - time: 0.625
      value: {fileID: 21300000, guid: 9aa43036eb6192d499739448acb32a9e, type: 3}
    attribute: m_Sprite
    path: 
    classID: 212
    script: {fileID: 0}
  m_SampleRate: 24
  m_WrapMode: 0
  m_Bounds:
    m_Center: {x: 0, y: 0, z: 0}
    m_Extent: {x: 0, y: 0, z: 0}
  m_ClipBindingConstant:
    genericBindings:
    - path: 0
      attribute: 0
      script: {fileID: 0}
      classID: 212
      customType: 23
      isPPtrCurve: 1
    pptrCurveMapping:
    - {fileID: 21300000, guid: b87811e0b66fedf469de30d8eefdd5bd, type: 3}
    - {fileID: 21300000, guid: cc5377dd6c9b3ba4da3276f91c7fade8, type: 3}
    - {fileID: 21300000, guid: 773d79477bf38dd44b8fe2db5911faac, type: 3}
    - {fileID: 21300000, guid: f42908664e8cc8742aa0202924086bf9, type: 3}
    - {fileID: 21300000, guid: adf8278f795e25942a8b83301cc3464f, type: 3}
    - {fileID: 21300000, guid: 29a78eb674a9eb944921ce39920e225f, type: 3}
    - {fileID: 21300000, guid: 43adb70c423935042ad2f703b2a2728a, type: 3}
    - {fileID: 21300000, guid: 96bacc349e82a3149ac5ef307e01270f, type: 3}
    - {fileID: 21300000, guid: 22ba01ee15d903447a36ee4ca02d4627, type: 3}
    - {fileID: 21300000, guid: de395bb4a1afe9c4190ba2792d022480, type: 3}
    - {fileID: 21300000, guid: 2e7dd8c121977fa4d96cc15213c9a8b3, type: 3}
    - {fileID: 21300000, guid: 606f8374a9742a04abc8064d2b3b801f, type: 3}
    - {fileID: 21300000, guid: 42b12bbbe37cb3342a2fea126855b844, type: 3}
    - {fileID: 21300000, guid: 572a9fd14fad08d41877fb9ba30d0580, type: 3}
    - {fileID: 21300000, guid: 3a2f5c6cac2e1774a81fe2d641d8c6ca, type: 3}
    - {fileID: 21300000, guid: 9aa43036eb6192d499739448acb32a9e, type: 3}
  m_AnimationClipSettings:
    serializedVersion: 2
    m_AdditiveReferencePoseClip: {fileID: 0}
    m_AdditiveReferencePoseTime: 0
    m_StartTime: 0
    m_StopTime: 0.6666667
    m_OrientationOffsetY: 0
    m_Level: 0
    m_CycleOffset: 0
    m_HasAdditiveReferencePose: 0
    m_LoopTime: 1
    m_LoopBlend: 0
    m_LoopBlendOrientation: 0
    m_LoopBlendPositionY: 0
    m_LoopBlendPositionXZ: 0
    m_KeepOriginalOrientation: 0
    m_KeepOriginalPositionY: 1
    m_KeepOriginalPositionXZ: 0
    m_HeightFromFeet: 0
    m_Mirror: 0
  m_EditorCurves: []
  m_EulerEditorCurves: []
  m_HasGenericRootTransform: 0
  m_HasMotionFloatCurves: 0
  m_GenerateMotionCurves: 0
  m_Events: []
