%YAML 1.1
%TAG !u! tag:unity3d.com,2011:
--- !u!74 &7400000
AnimationClip:
  m_ObjectHideFlags: 0
  m_PrefabParentObject: {fileID: 0}
  m_PrefabInternal: {fileID: 0}
  m_Name: Mout_Teleport
  serializedVersion: 6
  m_Legacy: 0
  m_Compressed: 0
  m_UseHighQualityCurve: 1
  m_RotationCurves: []
  m_CompressedRotationCurves: []
  m_EulerCurves: []
  m_PositionCurves: []
  m_ScaleCurves: []
  m_FloatCurves:
  - curve:
      serializedVersion: 2
      m_Curve:
      - time: 0
        value: 1
        inSlope: 0
        outSlope: 0
        tangentMode: 10
      - time: 0.7083333
        value: 1
        inSlope: -1.0909091
        outSlope: -1.0909091
        tangentMode: 10
      - time: 1.1666666
        value: 0
        inSlope: -2.1818182
        outSlope: -2.1818182
        tangentMode: 10
      m_PreInfinity: 2
      m_PostInfinity: 2
      m_RotationOrder: 4
    attribute: m_Color.a
    path: 
    classID: 212
    script: {fileID: 0}
  m_PPtrCurves:
  - curve:
    - time: 0
      value: {fileID: 21300000, guid: c6209b865a476e241b2505296fa69b63, type: 3}
    - time: 0.041666668
      value: {fileID: 21300000, guid: e64cabc2f60aee749a29c8df3fd53117, type: 3}
    - time: 0.083333336
      value: {fileID: 21300000, guid: 8459bc2e7be16af4b9a8c7f621be1b81, type: 3}
    - time: 0.125
      value: {fileID: 21300000, guid: 5baf23fc317f2e147a2d2d5deaf91650, type: 3}
    - time: 0.16666667
      value: {fileID: 21300000, guid: 72a5505bffeb9ab4eb005101e72a2de6, type: 3}
    - time: 0.20833333
      value: {fileID: 21300000, guid: 5f758e34cbc91f94db47538560e7443f, type: 3}
    - time: 0.25
      value: {fileID: 21300000, guid: 70a825701ca4bef479200658064f592e, type: 3}
    - time: 0.29166666
      value: {fileID: 21300000, guid: d4e6ccbcd153c13409bc83e44b3e2e95, type: 3}
    - time: 0.33333334
      value: {fileID: 21300000, guid: 7eee320c79fcb044aae099697f9d3ce4, type: 3}
    - time: 0.375
      value: {fileID: 21300000, guid: 36cece8a4ece9bb40a54bd57fbf0168e, type: 3}
    - time: 0.41666666
      value: {fileID: 21300000, guid: 9bc5fc67ff404e14abfaee0726342042, type: 3}
    - time: 0.45833334
      value: {fileID: 21300000, guid: 1287d202782b26a45987fd55510c7c0c, type: 3}
    - time: 0.5
      value: {fileID: 21300000, guid: 680dd90ad9451594a96006c255276519, type: 3}
    - time: 0.5416667
      value: {fileID: 21300000, guid: 480d0dfcda6daab47954595c436ba0ec, type: 3}
    - time: 0.5833333
      value: {fileID: 21300000, guid: 5e524008671f855458cebe490239592c, type: 3}
    - time: 0.625
      value: {fileID: 21300000, guid: fdda04b8f1c9bbb44b00c909008c6d86, type: 3}
    - time: 0.6666667
      value: {fileID: 21300000, guid: 91bc02a93fc3fe64d9003571ddc1b5e1, type: 3}
    - time: 0.7083333
      value: {fileID: 21300000, guid: 8c369157a7d90c341850aa5796cf1c1c, type: 3}
    - time: 0.75
      value: {fileID: 21300000, guid: e6748e1d4c6d1d84f80e04e10baba250, type: 3}
    - time: 0.7916667
      value: {fileID: 21300000, guid: 28f9efc2023cac64ea9bf2e3c3230c12, type: 3}
    attribute: m_Sprite
    path: 
    classID: 212
    script: {fileID: 0}
  m_SampleRate: 24
  m_WrapMode: 0
  m_Bounds:
    m_Center: {x: 0, y: 0, z: 0}
    m_Extent: {x: 0, y: 0, z: 0}
  m_ClipBindingConstant:
    genericBindings:
    - path: 0
      attribute: 304273561
      script: {fileID: 0}
      classID: 212
      customType: 0
      isPPtrCurve: 0
    - path: 0
      attribute: 0
      script: {fileID: 0}
      classID: 212
      customType: 23
      isPPtrCurve: 1
    pptrCurveMapping:
    - {fileID: 21300000, guid: c6209b865a476e241b2505296fa69b63, type: 3}
    - {fileID: 21300000, guid: e64cabc2f60aee749a29c8df3fd53117, type: 3}
    - {fileID: 21300000, guid: 8459bc2e7be16af4b9a8c7f621be1b81, type: 3}
    - {fileID: 21300000, guid: 5baf23fc317f2e147a2d2d5deaf91650, type: 3}
    - {fileID: 21300000, guid: 72a5505bffeb9ab4eb005101e72a2de6, type: 3}
    - {fileID: 21300000, guid: 5f758e34cbc91f94db47538560e7443f, type: 3}
    - {fileID: 21300000, guid: 70a825701ca4bef479200658064f592e, type: 3}
    - {fileID: 21300000, guid: d4e6ccbcd153c13409bc83e44b3e2e95, type: 3}
    - {fileID: 21300000, guid: 7eee320c79fcb044aae099697f9d3ce4, type: 3}
    - {fileID: 21300000, guid: 36cece8a4ece9bb40a54bd57fbf0168e, type: 3}
    - {fileID: 21300000, guid: 9bc5fc67ff404e14abfaee0726342042, type: 3}
    - {fileID: 21300000, guid: 1287d202782b26a45987fd55510c7c0c, type: 3}
    - {fileID: 21300000, guid: 680dd90ad9451594a96006c255276519, type: 3}
    - {fileID: 21300000, guid: 480d0dfcda6daab47954595c436ba0ec, type: 3}
    - {fileID: 21300000, guid: 5e524008671f855458cebe490239592c, type: 3}
    - {fileID: 21300000, guid: fdda04b8f1c9bbb44b00c909008c6d86, type: 3}
    - {fileID: 21300000, guid: 91bc02a93fc3fe64d9003571ddc1b5e1, type: 3}
    - {fileID: 21300000, guid: 8c369157a7d90c341850aa5796cf1c1c, type: 3}
    - {fileID: 21300000, guid: e6748e1d4c6d1d84f80e04e10baba250, type: 3}
    - {fileID: 21300000, guid: 28f9efc2023cac64ea9bf2e3c3230c12, type: 3}
  m_AnimationClipSettings:
    serializedVersion: 2
    m_AdditiveReferencePoseClip: {fileID: 0}
    m_AdditiveReferencePoseTime: 0
    m_StartTime: 0
    m_StopTime: 1.1666666
    m_OrientationOffsetY: 0
    m_Level: 0
    m_CycleOffset: 0
    m_HasAdditiveReferencePose: 0
    m_LoopTime: 0
    m_LoopBlend: 0
    m_LoopBlendOrientation: 0
    m_LoopBlendPositionY: 0
    m_LoopBlendPositionXZ: 0
    m_KeepOriginalOrientation: 0
    m_KeepOriginalPositionY: 1
    m_KeepOriginalPositionXZ: 0
    m_HeightFromFeet: 0
    m_Mirror: 0
  m_EditorCurves:
  - curve:
      serializedVersion: 2
      m_Curve:
      - time: 0
        value: 1
        inSlope: 0
        outSlope: 0
        tangentMode: 10
      - time: 0.7083333
        value: 1
        inSlope: -1.0909091
        outSlope: -1.0909091
        tangentMode: 10
      - time: 1.1666666
        value: 0
        inSlope: -2.1818182
        outSlope: -2.1818182
        tangentMode: 10
      m_PreInfinity: 2
      m_PostInfinity: 2
      m_RotationOrder: 4
    attribute: m_Color.a
    path: 
    classID: 212
    script: {fileID: 0}
  m_EulerEditorCurves: []
  m_HasGenericRootTransform: 0
  m_HasMotionFloatCurves: 0
  m_GenerateMotionCurves: 0
  m_Events: []
